projectKey=LY-Cpp-Std-Unit
serverUrl=http://192.168.3.32:9000
serverVersion=10.3.0.82913
dashboardUrl=http://192.168.3.32:9000/dashboard?id=LY-Cpp-Std-Unit
ceTaskId=AY1omQkPdbU3S0idp8W3
ceTaskUrl=http://192.168.3.32:9000/api/ce/task?id=AY1omQkPdbU3S0idp8W3
